<?xml version="1.0" encoding="UTF-8" standalone="no"?>
<!-- Created with Inkscape (http://www.inkscape.org/) -->

<svg
   xmlns:dc="http://purl.org/dc/elements/1.1/"
   xmlns:cc="http://creativecommons.org/ns#"
   xmlns:rdf="http://www.w3.org/1999/02/22-rdf-syntax-ns#"
   xmlns:svg="http://www.w3.org/2000/svg"
   xmlns="http://www.w3.org/2000/svg"
   xmlns:sodipodi="http://sodipodi.sourceforge.net/DTD/sodipodi-0.dtd"
   xmlns:inkscape="http://www.inkscape.org/namespaces/inkscape"
   width="297mm"
   height="210mm"
   viewBox="0 0 297 210"
   version="1.1"
   id="svg2094"
   inkscape:version="0.92.3 (2405546, 2018-03-11)"
   sodipodi:docname="primocary.svg">
  <defs
     id="defs2088" />
  <sodipodi:namedview
     id="base"
     pagecolor="#ffffff"
     bordercolor="#666666"
     borderopacity="1.0"
     inkscape:pageopacity="0.0"
     inkscape:pageshadow="2"
     inkscape:zoom="1.4"
     inkscape:cx="910.42502"
     inkscape:cy="453.69732"
     inkscape:document-units="mm"
     inkscape:current-layer="layer1"
     showgrid="false"
     inkscape:measure-start="589.929,543.462"
     inkscape:measure-end="779.838,480.833"
     inkscape:window-width="1280"
     inkscape:window-height="723"
     inkscape:window-x="0"
     inkscape:window-y="24"
     inkscape:window-maximized="1" />
  <metadata
     id="metadata2091">
    <rdf:RDF>
      <cc:Work
         rdf:about="">
        <dc:format>image/svg+xml</dc:format>
        <dc:type
           rdf:resource="http://purl.org/dc/dcmitype/StillImage" />
        <dc:title></dc:title>
      </cc:Work>
    </rdf:RDF>
  </metadata>
  <g
     inkscape:label="Vrstva 1"
     inkscape:groupmode="layer"
     id="layer1"
     transform="translate(0,-87)">
    <path
       style="fill:none;stroke:#000000;stroke-width:0.84684604;stroke-linecap:butt;stroke-linejoin:miter;stroke-miterlimit:4;stroke-dasharray:none;stroke-opacity:1"
       d="m 70.202643,119.95972 79.891827,154.5577"
       id="path2649"
       inkscape:connector-curvature="0" />
    <path
       style="fill:none;stroke:#000000;stroke-width:0.84684604;stroke-linecap:butt;stroke-linejoin:miter;stroke-miterlimit:4;stroke-dasharray:none;stroke-dashoffset:0;stroke-opacity:1"
       d="m 148.86941,147.14323 1.04861,125.94102"
       id="path2651"
       inkscape:connector-curvature="0" />
    <path
       style="fill:none;stroke:#000000;stroke-width:0.84684604;stroke-linecap:butt;stroke-linejoin:miter;stroke-miterlimit:4;stroke-dasharray:2.54053817, 2.54053817;stroke-dashoffset:0;stroke-opacity:1"
       d="M 150.09447,274.51742 194.00019,160.57653"
       id="path2643"
       inkscape:connector-curvature="0" />
    <path
       style="opacity:1;fill:#0600ff;fill-opacity:1;fill-rule:nonzero;stroke:#000002;stroke-width:1.0098232;stroke-linecap:round;stroke-linejoin:round;stroke-miterlimit:4;stroke-dasharray:none;stroke-dashoffset:0;stroke-opacity:1;paint-order:normal"
       id="path2639"
       sodipodi:type="arc"
       sodipodi:cx="149.74976"
       sodipodi:cy="273.2175"
       sodipodi:rx="3.3907955"
       sodipodi:ry="3.3907955"
       sodipodi:start="2.9946248"
       sodipodi:end="2.9915269"
       d="m 146.39551,273.71404 a 3.3907955,3.3907955 0 0 1 2.8551,-3.8504 3.3907955,3.3907955 0 0 1 3.85261,2.85212 3.3907955,3.3907955 0 0 1 -2.84913,3.85482 3.3907955,3.3907955 0 0 1 -3.85702,-2.84615"
       sodipodi:open="true" />
    <path
       style="fill:none;stroke:#000000;stroke-width:1.69369209;stroke-linecap:butt;stroke-linejoin:miter;stroke-miterlimit:4;stroke-dasharray:none;stroke-opacity:1"
       d="M 35.185922,107.65273 274.62792,190.4719"
       id="path2641"
       inkscape:connector-curvature="0"
       sodipodi:nodetypes="cc" />
    <path
       style="opacity:1;fill:#ffff00;fill-opacity:1;fill-rule:nonzero;stroke:#000002;stroke-width:1.0098232;stroke-linecap:round;stroke-linejoin:round;stroke-miterlimit:4;stroke-dasharray:none;stroke-dashoffset:0;stroke-opacity:1;paint-order:normal"
       id="path2647"
       sodipodi:type="arc"
       sodipodi:cx="70.233154"
       sodipodi:cy="119.73629"
       sodipodi:rx="3.3907955"
       sodipodi:ry="3.3907955"
       sodipodi:start="2.9946248"
       sodipodi:end="2.9915269"
       d="m 66.878913,120.23284 a 3.3907955,3.3907955 0 0 1 2.855098,-3.85041 3.3907955,3.3907955 0 0 1 3.852612,2.85212 3.3907955,3.3907955 0 0 1 -2.849131,3.85482 3.3907955,3.3907955 0 0 1 -3.857025,-2.84615"
       sodipodi:open="true" />
    <path
       sodipodi:open="true"
       d="m 145.79426,148.33555 a 3.3907955,3.3907955 0 0 1 2.8551,-3.8504 3.3907955,3.3907955 0 0 1 3.85261,2.85211 3.3907955,3.3907955 0 0 1 -2.84913,3.85482 3.3907955,3.3907955 0 0 1 -3.85703,-2.84614"
       sodipodi:end="2.9915269"
       sodipodi:start="2.9946248"
       sodipodi:ry="3.3907955"
       sodipodi:rx="3.3907955"
       sodipodi:cy="147.839"
       sodipodi:cx="149.1485"
       sodipodi:type="arc"
       id="path2645"
       style="opacity:1;fill:#ff1c00;fill-opacity:1;fill-rule:nonzero;stroke:#000002;stroke-width:1.0098232;stroke-linecap:round;stroke-linejoin:round;stroke-miterlimit:4;stroke-dasharray:none;stroke-dashoffset:0;stroke-opacity:1;paint-order:normal" />
    <text
       xml:space="preserve"
       style="font-style:normal;font-weight:normal;font-size:14.11111069px;line-height:1.25;font-family:sans-serif;letter-spacing:0px;word-spacing:0px;fill:#000000;fill-opacity:1;stroke:none;stroke-width:0.44812271"
       x="191.26952"
       y="190.18663"
       id="text2655"><tspan
         sodipodi:role="line"
         id="tspan2653"
         x="191.26952"
         y="190.18663"
         style="stroke-width:0.44812271">l</tspan></text>
    <path
       style="opacity:1;fill:none;fill-opacity:1;fill-rule:nonzero;stroke:#000000;stroke-width:0.84744108;stroke-linecap:round;stroke-linejoin:round;stroke-miterlimit:4;stroke-dasharray:none;stroke-dashoffset:0;stroke-opacity:1;paint-order:normal"
       id="path2657"
       sodipodi:type="arc"
       sodipodi:cx="150.09447"
       sodipodi:cy="274.5174"
       sodipodi:rx="66.38636"
       sodipodi:ry="66.38636"
       sodipodi:start="4.2361786"
       sodipodi:end="5.0787064"
       d="m 119.662,215.51728 a 66.38636,66.38636 0 0 1 54.21071,-2.98169"
       sodipodi:open="true" />
    <path
       sodipodi:open="true"
       d="m 149.95252,232.86538 a 41.652252,41.652252 0 0 1 15.06093,2.76328"
       sodipodi:end="5.0787064"
       sodipodi:start="4.708981"
       sodipodi:ry="41.652252"
       sodipodi:rx="41.652252"
       sodipodi:cy="274.5174"
       sodipodi:cx="150.09447"
       sodipodi:type="arc"
       id="path2661"
       style="opacity:1;fill:none;fill-opacity:1;fill-rule:nonzero;stroke:#000000;stroke-width:0.84684604;stroke-linecap:round;stroke-linejoin:round;stroke-miterlimit:4;stroke-dasharray:none;stroke-dashoffset:0;stroke-opacity:1;paint-order:normal" />
    <text
       id="text2665"
       y="145.06047"
       x="158.97765"
       style="font-style:normal;font-weight:normal;font-size:14.11111069px;line-height:1.25;font-family:sans-serif;letter-spacing:0px;word-spacing:0px;fill:#000000;fill-opacity:1;stroke:none;stroke-width:0.44812271"
       xml:space="preserve"><tspan
         style="stroke-width:0.44812271"
         y="145.06047"
         x="158.97765"
         id="tspan2663"
         sodipodi:role="line">s_1</tspan></text>
    <text
       xml:space="preserve"
       style="font-style:normal;font-weight:normal;font-size:14.11111069px;line-height:1.25;font-family:sans-serif;letter-spacing:0px;word-spacing:0px;fill:#000000;fill-opacity:1;stroke:none;stroke-width:0.44812271"
       x="81.573166"
       y="117.86327"
       id="text2669"><tspan
         sodipodi:role="line"
         id="tspan2667"
         x="81.573166"
         y="117.86327"
         style="stroke-width:0.44812271">s_2</tspan></text>
    <text
       id="text2673"
       y="202.50575"
       x="125.48841"
       style="font-style:normal;font-weight:normal;font-size:14.11111069px;line-height:1.25;font-family:sans-serif;letter-spacing:0px;word-spacing:0px;fill:#000000;fill-opacity:1;stroke:none;stroke-width:0.44812271"
       xml:space="preserve"><tspan
         style="stroke-width:0.44812271"
         y="202.50575"
         x="125.48841"
         id="tspan2671"
         sodipodi:role="line">\varphi_2</tspan></text>
    <text
       xml:space="preserve"
       style="font-style:normal;font-weight:normal;font-size:14.11111069px;line-height:1.25;font-family:sans-serif;letter-spacing:0px;word-spacing:0px;fill:#000000;fill-opacity:1;stroke:none;stroke-width:0.44812271"
       x="153.96674"
       y="225.50209"
       id="text2677"><tspan
         sodipodi:role="line"
         id="tspan2675"
         x="153.96674"
         y="225.50209"
         style="stroke-width:0.44812271">\varphi_1</tspan></text>
    <path
       sodipodi:open="true"
       d="m 191.1962,162.90015 a 1.997854,1.997854 0 0 1 1.68222,-2.26865 1.997854,1.997854 0 0 1 2.26996,1.68046 1.997854,1.997854 0 0 1 -1.67871,2.27126 1.997854,1.997854 0 0 1 -2.27255,-1.67694"
       sodipodi:end="2.9915269"
       sodipodi:start="2.9946248"
       sodipodi:ry="1.997854"
       sodipodi:rx="1.997854"
       sodipodi:cy="162.60759"
       sodipodi:cx="193.17252"
       sodipodi:type="arc"
       id="path2679"
       style="opacity:1;fill:#000000;fill-opacity:1;fill-rule:nonzero;stroke:#000002;stroke-width:0.59498698;stroke-linecap:round;stroke-linejoin:round;stroke-miterlimit:4;stroke-dasharray:none;stroke-dashoffset:0;stroke-opacity:1;paint-order:normal" />
    <text
       xml:space="preserve"
       style="font-style:normal;font-weight:normal;font-size:14.11111069px;line-height:1.25;font-family:sans-serif;letter-spacing:0px;word-spacing:0px;fill:#000000;fill-opacity:1;stroke:none;stroke-width:0.44812271"
       x="194.24236"
       y="156.62868"
       id="text2683"><tspan
         sodipodi:role="line"
         id="tspan2681"
         x="194.24236"
         y="156.62868"
         style="stroke-width:0.44812271">P</tspan></text>
    <text
       xml:space="preserve"
       style="font-style:normal;font-weight:normal;font-size:14.11111069px;line-height:1.25;font-family:sans-serif;letter-spacing:0px;word-spacing:0px;fill:#000000;fill-opacity:1;stroke:none;stroke-width:0.44812271"
       x="144.49805"
       y="139.38972"
       id="text2687"><tspan
         sodipodi:role="line"
         id="tspan2685"
         x="144.49805"
         y="139.38972"
         style="stroke-width:0.44812271">A</tspan></text>
    <text
       xml:space="preserve"
       style="font-style:normal;font-weight:normal;font-size:14.11111069px;line-height:1.25;font-family:sans-serif;letter-spacing:0px;word-spacing:0px;fill:#000000;fill-opacity:1;stroke:none;stroke-width:0.44812271"
       x="66.827454"
       y="110.73312"
       id="text2691"><tspan
         sodipodi:role="line"
         id="tspan2689"
         x="66.827454"
         y="110.73312"
         style="stroke-width:0.44812271">B</tspan></text>
    <path
       style="fill:none;stroke:#000000;stroke-width:0.84744108;stroke-linecap:butt;stroke-linejoin:miter;stroke-miterlimit:4;stroke-dasharray:none;stroke-opacity:1"
       d="m 122.83868,210.10194 -2.68411,5.34498 5.96102,0.95151"
       id="path2712"
       inkscape:connector-curvature="0"
       sodipodi:nodetypes="ccc" />
    <path
       sodipodi:nodetypes="ccc"
       inkscape:connector-curvature="0"
       id="path2714"
       d="m 154.87469,229.46752 -4.92217,3.39786 4.77063,3.69867"
       style="fill:none;stroke:#000000;stroke-width:0.84744108;stroke-linecap:butt;stroke-linejoin:miter;stroke-miterlimit:4;stroke-dasharray:none;stroke-opacity:1" />
    <text
       id="text2718"
       y="284.74557"
       x="158.26253"
       style="font-style:normal;font-weight:normal;font-size:14.11111069px;line-height:1.25;font-family:sans-serif;letter-spacing:0px;word-spacing:0px;fill:#000000;fill-opacity:1;stroke:none;stroke-width:0.44812271"
       xml:space="preserve"><tspan
         style="stroke-width:0.44812271"
         y="284.74557"
         x="158.26253"
         id="tspan2716"
         sodipodi:role="line">S</tspan></text>
    <text
       id="text2726"
       y="190.87387"
       x="219.64848"
       style="font-style:normal;font-weight:normal;font-size:14.11111069px;line-height:1.25;font-family:sans-serif;letter-spacing:0px;word-spacing:0px;fill:#000000;fill-opacity:1;stroke:none;stroke-width:0.44812271"
       xml:space="preserve"><tspan
         style="stroke-width:0.44812271"
         y="190.87387"
         x="219.64848"
         id="tspan2724"
         sodipodi:role="line">p</tspan></text>
    <text
       xml:space="preserve"
       style="font-style:normal;font-weight:normal;font-size:14.11111069px;line-height:1.25;font-family:sans-serif;letter-spacing:0px;word-spacing:0px;fill:#000000;fill-opacity:1;stroke:none;stroke-width:0.44812271"
       x="134.78717"
       y="174.16463"
       id="text2805"><tspan
         sodipodi:role="line"
         id="tspan2803"
         x="134.78717"
         y="174.16463"
         style="stroke-width:0.44812271">r_1</tspan></text>
    <text
       id="text2809"
       y="166.22713"
       x="70.153244"
       style="font-style:normal;font-weight:normal;font-size:14.11111069px;line-height:1.25;font-family:sans-serif;letter-spacing:0px;word-spacing:0px;fill:#000000;fill-opacity:1;stroke:none;stroke-width:0.44812271"
       xml:space="preserve"><tspan
         style="stroke-width:0.44812271"
         y="166.22713"
         x="70.153244"
         id="tspan2807"
         sodipodi:role="line">r_2</tspan></text>
    <g
       id="g2817"
       transform="rotate(19.302346,95.050066,95.607408)">
      <path
         sodipodi:nodetypes="cc"
         inkscape:connector-curvature="0"
         id="path2811"
         d="m 65.569655,131.71641 -37.912706,0.0388"
         style="fill:none;stroke:#000000;stroke-width:1.5;stroke-linecap:butt;stroke-linejoin:miter;stroke-miterlimit:4;stroke-dasharray:none;stroke-opacity:1" />
      <path
         sodipodi:nodetypes="ccc"
         inkscape:connector-curvature="0"
         id="path2813"
         d="m 38.35423,137.38158 -10.697281,-5.62637 10.476527,-5.19592"
         style="fill:none;stroke:#000000;stroke-width:1.5;stroke-linecap:butt;stroke-linejoin:miter;stroke-miterlimit:4;stroke-dasharray:none;stroke-opacity:1" />
    </g>
    <text
       id="text2821"
       y="128.84753"
       x="33.449986"
       style="font-style:normal;font-weight:normal;font-size:14.11111069px;line-height:1.25;font-family:sans-serif;letter-spacing:0px;word-spacing:0px;fill:#000000;fill-opacity:1;stroke:none;stroke-width:0.44812271"
       xml:space="preserve"><tspan
         style="stroke-width:0.44812271"
         y="128.84753"
         x="33.449986"
         id="tspan2819"
         sodipodi:role="line">\vect{v}</tspan></text>
  </g>
</svg>
