<?xml version="1.0" encoding="UTF-8" standalone="no"?>
<svg
   xmlns:dc="http://purl.org/dc/elements/1.1/"
   xmlns:cc="http://creativecommons.org/ns#"
   xmlns:rdf="http://www.w3.org/1999/02/22-rdf-syntax-ns#"
   xmlns:svg="http://www.w3.org/2000/svg"
   xmlns="http://www.w3.org/2000/svg"
   id="svg1471"
   version="1.1"
   viewBox="0 0 297 210"
   height="210mm"
   width="297mm">
  <defs
     id="defs1465" />
  <metadata
     id="metadata1468">
    <rdf:RDF>
      <cc:Work
         rdf:about="">
        <dc:format>image/svg+xml</dc:format>
        <dc:type
           rdf:resource="http://purl.org/dc/dcmitype/StillImage" />
        <dc:title></dc:title>
      </cc:Work>
    </rdf:RDF>
  </metadata>
  <g
     transform="translate(0,-87)"
     id="layer1">
    <g
       id="g2116"
       transform="matrix(-0.64198232,-1.1102587,1.1102587,-0.64198232,2.5462842,369.50365)">
      <path
         id="path2112"
         d="M 146.4355,136.71154 105.45833,115.61863"
         style="fill:none;stroke:#000000;stroke-width:1.79299998;stroke-linecap:butt;stroke-linejoin:miter;stroke-miterlimit:4;stroke-dasharray:none;stroke-opacity:1" />
      <path
         style="fill:none;stroke:#000000;stroke-width:1.79299998;stroke-linecap:square;stroke-linejoin:miter;stroke-miterlimit:4;stroke-dasharray:none;stroke-opacity:1"
         d="m 110.66261,125.97665 -6.78242,-11.13934 10.69442,5.50352"
         id="path2114" />
    </g>
    <g
       transform="matrix(1.1047776,-0.65136944,0.65136944,1.1047776,-193.61906,65.047583)"
       id="g850">
      <path
         style="fill:none;stroke:#000000;stroke-width:1.79299998;stroke-linecap:butt;stroke-linejoin:miter;stroke-miterlimit:4;stroke-dasharray:none;stroke-opacity:1"
         d="M 146.4355,136.71154 105.45833,115.61863"
         id="path846" />
      <path
         id="path848"
         d="m 110.66261,125.97665 -6.78242,-11.13934 10.69442,5.50352"
         style="fill:none;stroke:#000000;stroke-width:1.79308128;stroke-linecap:square;stroke-linejoin:miter;stroke-miterlimit:4;stroke-dasharray:none;stroke-opacity:1" />
    </g>
    <g
       id="g1665"
       transform="matrix(1.1038967,-0.65286114,0.65286114,1.1038967,-248.88719,64.347199)">
      <path
         id="path1661"
         d="m 184.83974,157.77182 -58.3359,-30.8301"
         style="fill:none;stroke:#000000;stroke-width:1.00012505;stroke-linecap:butt;stroke-linejoin:miter;stroke-miterlimit:4;stroke-dasharray:none;stroke-opacity:1" />
      <path
         style="fill:none;stroke:#000000;stroke-width:1;stroke-linecap:square;stroke-linejoin:miter;stroke-miterlimit:4;stroke-dasharray:none;stroke-opacity:1"
         d="m 138.00956,133.07557 -12.00588,-6.33678 13.17274,-1.07162"
         id="path1663" />
      <path
         id="path1399"
         d="M 53.724589,190.604 232.66028,296.42926"
         style="fill:none;stroke:#000000;stroke-width:1.22300029;stroke-linecap:butt;stroke-linejoin:miter;stroke-miterlimit:4;stroke-dasharray:4.89200048, 4.89200048;stroke-dashoffset:0;stroke-opacity:1" />
      <g
         id="g1405"
         transform="matrix(-0.05014355,0.64909751,-0.64909751,-0.05014355,308.14033,161.52103)">
        <path
           d="m 104.48806,228.84034 a 41.600056,41.600056 0 0 1 23.89907,-25.67424 41.600056,41.600056 0 0 1 35.03365,1.72497"
           id="path1401"
           style="opacity:1;fill:none;fill-opacity:1;fill-rule:nonzero;stroke:#000000;stroke-width:1.25339568;stroke-linecap:round;stroke-linejoin:round;stroke-miterlimit:4;stroke-dasharray:none;stroke-dashoffset:0;stroke-opacity:1;paint-order:normal" />
        <path
           id="path1403"
           d="m 110.02817,224.81088 -5.70413,4.68086 -1.02727,-7.63111"
           style="fill:none;stroke:#000000;stroke-width:1.25339568;stroke-linecap:square;stroke-linejoin:miter;stroke-miterlimit:4;stroke-dasharray:none;stroke-opacity:1" />
      </g>
      <text
         transform="rotate(30.600709)"
         xml:space="preserve"
         style="font-style:normal;font-weight:normal;font-size:14.11111069px;line-height:1.25;font-family:sans-serif;letter-spacing:0px;word-spacing:0px;fill:#000000;fill-opacity:1;stroke:none;stroke-width:0.40778288"
         x="252.63731"
         y="129.55719"
         id="text1409"><tspan
           id="tspan1407"
           x="252.63731"
           y="129.55719"
           style="stroke-width:0.40778288">\varphi</tspan></text>
    </g>
    <path
       d="M -57.341181,239.33064 A 119.94956,119.94956 0 0 1 2.2499882,133.87132 119.94956,119.94956 0 0 1 123.38095,134.12929 119.94956,119.94956 0 0 1 182.52237,239.8415"
       id="path844"
       style="opacity:1;fill:none;fill-opacity:1;fill-rule:nonzero;stroke:#000000;stroke-width:1.56894922;stroke-linecap:round;stroke-linejoin:round;stroke-miterlimit:4;stroke-dasharray:none;stroke-dashoffset:11.33858299;stroke-opacity:1;paint-order:normal" />
    <g
       transform="matrix(0.64198239,1.1102586,-1.1102586,0.64198239,119.9882,-66.660184)"
       id="g1638">
      <path
         style="fill:none;stroke:#000000;stroke-width:1.00012505;stroke-linecap:butt;stroke-linejoin:miter;stroke-miterlimit:4;stroke-dasharray:none;stroke-opacity:1"
         d="M 184.83974,157.77182 104.71105,116.53724"
         id="path819" />
      <path
         id="path843"
         d="m 110.41389,126.96743 -6.89315,-11.04128 9.98333,5.14759"
         style="fill:none;stroke:#000000;stroke-width:1;stroke-linecap:square;stroke-linejoin:miter;stroke-miterlimit:4;stroke-dasharray:none;stroke-opacity:1" />
    </g>
    <text
       id="text841"
       y="110.06487"
       x="60.687263"
       style="font-style:normal;font-weight:normal;font-size:18.09755135px;line-height:1.25;font-family:sans-serif;letter-spacing:0px;word-spacing:0px;fill:#000000;fill-opacity:1;stroke:none;stroke-width:0.52298301"
       xml:space="preserve"><tspan
         style="stroke-width:0.52298301"
         y="110.06487"
         x="60.687263"
         id="tspan839">A</tspan></text>
    <text
       id="text855"
       y="202.65211"
       x="43.992058"
       style="font-style:normal;font-weight:normal;font-size:14.11111069px;line-height:1.25;font-family:sans-serif;letter-spacing:0px;word-spacing:0px;fill:#000000;fill-opacity:1;stroke:none;stroke-width:0.52298301"
       xml:space="preserve"><tspan
         style="stroke-width:0.52298301"
         y="202.65211"
         x="43.992058"
         id="tspan853">\omega</tspan></text>
    <path
       d="m 31.416148,194.83982 a 53.352224,53.352224 0 0 1 27.278769,-9.78768"
       id="path851"
       style="opacity:1;fill:none;fill-opacity:1;fill-rule:nonzero;stroke:#000000;stroke-width:1.04581225;stroke-linecap:round;stroke-linejoin:round;stroke-miterlimit:4;stroke-dasharray:none;stroke-dashoffset:0;stroke-opacity:1;paint-order:normal" />
    <path
       id="path857"
       d="m 37.492265,194.30204 -6.076092,0.53777 2.876861,-5.54929"
       style="fill:none;stroke:#000000;stroke-width:1.04596615;stroke-linecap:square;stroke-linejoin:miter;stroke-miterlimit:4;stroke-dasharray:none;stroke-opacity:1" />
    <text
       id="text1014"
       y="166.2775"
       x="41.262981"
       style="font-style:normal;font-weight:normal;font-size:18.09755135px;line-height:1.25;font-family:sans-serif;letter-spacing:0px;word-spacing:0px;fill:#000000;fill-opacity:1;stroke:none;stroke-width:0.33932906"
       xml:space="preserve"><tspan
         style="stroke-width:0.33932906"
         y="166.2775"
         x="41.262981"
         id="tspan1012">\vect{r}</tspan></text>
    <text
       id="text1439"
       y="260.99997"
       x="53.213631"
       style="font-style:normal;font-weight:normal;font-size:18.09755135px;line-height:1.25;font-family:sans-serif;letter-spacing:0px;word-spacing:0px;fill:#000000;fill-opacity:1;stroke:none;stroke-width:0.33932906"
       xml:space="preserve"><tspan
         style="stroke-width:0.33932906"
         y="260.99997"
         x="53.213631"
         id="tspan1437">S</tspan></text>
    <path
       style="opacity:1;fill:#0600ff;fill-opacity:1;fill-rule:nonzero;stroke:#000000;stroke-width:0.92009002;stroke-linecap:round;stroke-linejoin:round;stroke-miterlimit:4;stroke-dasharray:none;stroke-dashoffset:18.89763832;stroke-opacity:1;paint-order:normal"
       id="path1630"
       d="m 65.717856,237.73425 a 3.198638,3.198638 0 0 1 -0.493213,4.4946 3.198638,3.198638 0 0 1 -4.495021,-0.48928 3.198638,3.198638 0 0 1 0.485325,-4.49544 3.198638,3.198638 0 0 1 4.495868,0.4814" />
    <path
       d="m 60.062079,115.70665 a 3.198638,3.198638 0 0 1 -0.493213,4.4946 3.198638,3.198638 0 0 1 -4.495027,-0.48927 3.198638,3.198638 0 0 1 0.485325,-4.49545 3.198638,3.198638 0 0 1 4.495874,0.4814"
       id="path817"
       style="opacity:1;fill:#ff0000;fill-opacity:1;fill-rule:nonzero;stroke:#000000;stroke-width:0.92009002;stroke-linecap:round;stroke-linejoin:round;stroke-miterlimit:4;stroke-dasharray:none;stroke-dashoffset:18.89763832;stroke-opacity:1;paint-order:normal" />
    <text
       id="text1014-3"
       y="113.51334"
       x="1.9873157"
       style="font-style:normal;font-weight:normal;font-size:18.09755135px;line-height:1.25;font-family:sans-serif;letter-spacing:0px;word-spacing:0px;fill:#000000;fill-opacity:1;stroke:none;stroke-width:0.33932906"
       xml:space="preserve"><tspan
         style="stroke-width:0.33932906"
         y="113.51334"
         x="1.9873157"
         id="tspan1012-6">\vect{v}</tspan></text>
    <text
       xml:space="preserve"
       style="font-style:normal;font-weight:normal;font-size:18.09755135px;line-height:1.25;font-family:sans-serif;letter-spacing:0px;word-spacing:0px;fill:#000000;fill-opacity:1;stroke:none;stroke-width:0.33932906"
       x="67.736565"
       y="152.48434"
       id="text2120"><tspan
         id="tspan2118"
         x="67.736565"
         y="152.48434"
         style="stroke-width:0.33932906">\vect{a_d}</tspan></text>
    <text
       xml:space="preserve"
       style="font-style:normal;font-weight:normal;font-size:18.09755135px;line-height:1.25;font-family:sans-serif;letter-spacing:0px;word-spacing:0px;fill:#000000;fill-opacity:1;stroke:none;stroke-width:0.33932906"
       x="23.670324"
       y="139.19057"
       id="text854"><tspan
         id="tspan852"
         x="23.670324"
         y="139.19057"
         style="stroke-width:0.33932906">\vect{a_t}</tspan></text>
    <g
       transform="matrix(1.0961778,-0.66574006,0.66574006,1.0961778,-241.75677,77.8629)"
       id="g865">
      <path
         d="m 120.83962,195.37395 c 3.51849,-2.76487 8.23682,-5.31265 11.9939,-5.90474"
         id="path856"
         style="opacity:1;fill:none;fill-opacity:1;fill-rule:nonzero;stroke:#000000;stroke-width:0.81544584;stroke-linecap:round;stroke-linejoin:round;stroke-miterlimit:4;stroke-dasharray:none;stroke-dashoffset:0;stroke-opacity:1;paint-order:normal" />
      <path
         id="path861"
         d="m 125.39826,195.33806 -4.73768,0.41931 2.24316,-4.32692"
         style="fill:none;stroke:#000000;stroke-width:0.81544584;stroke-linecap:square;stroke-linejoin:miter;stroke-miterlimit:4;stroke-dasharray:none;stroke-opacity:1" />
    </g>
    <text
       xml:space="preserve"
       style="font-style:normal;font-weight:normal;font-size:14.11111069px;line-height:1.25;font-family:sans-serif;letter-spacing:0px;word-spacing:0px;fill:#000000;fill-opacity:1;stroke:none;stroke-width:0.52298301"
       x="32.187218"
       y="216.08104"
       id="text869"><tspan
         id="tspan867"
         x="32.187218"
         y="216.08104"
         style="stroke-width:0.52298301">\varepsilon</tspan></text>
    <g
       transform="translate(6.9212571,24.539002)"
       id="g937">
      <g
         id="g893"
         transform="matrix(1.7131311,0,0,1.7131311,-74.498496,-103.56806)">
        <path
           style="fill:none;stroke:#000000;stroke-width:0.77222151;stroke-linecap:butt;stroke-linejoin:miter;stroke-miterlimit:4;stroke-dasharray:none;stroke-opacity:1"
           d="m 227.41373,135.14157 -46.87668,2.64194"
           id="path871" />
        <path
           id="path873"
           d="m 189.36636,142.28329 -9.72042,-4.3713 8.94253,-5.51771"
           style="fill:none;stroke:#000000;stroke-width:0.77222151;stroke-linecap:square;stroke-linejoin:miter;stroke-miterlimit:4;stroke-dasharray:none;stroke-opacity:1" />
      </g>
      <g
         id="g889"
         transform="matrix(1.7131311,0,0,1.7131311,-74.498496,-103.56806)">
        <path
           id="path877"
           d="m 227.41373,134.59102 2.33052,46.89742"
           style="fill:none;stroke:#000000;stroke-width:0.77222151;stroke-linecap:butt;stroke-linejoin:miter;stroke-miterlimit:4;stroke-dasharray:none;stroke-opacity:1" />
        <path
           style="fill:none;stroke:#000000;stroke-width:0.77222151;stroke-linecap:square;stroke-linejoin:miter;stroke-miterlimit:4;stroke-dasharray:none;stroke-opacity:1"
           d="m 234.69265,172.15097 -4.9484,9.33747 -6.23265,-9.19278"
           id="path879" />
      </g>
      <g
         id="g899"
         transform="matrix(1.2113666,-1.2113666,1.2113666,1.2113666,-214.21125,191.63065)">
        <path
           id="path895"
           d="m 244.759,192.1874 -61.82806,4.53787"
           style="fill:none;stroke:#000000;stroke-width:1.23555446;stroke-linecap:butt;stroke-linejoin:miter;stroke-miterlimit:4;stroke-dasharray:none;stroke-opacity:1" />
        <path
           style="fill:none;stroke:#000000;stroke-width:1.23555446;stroke-linecap:square;stroke-linejoin:miter;stroke-miterlimit:4;stroke-dasharray:none;stroke-opacity:1"
           d="m 191.90474,201.12006 -9.72042,-4.3713 8.94253,-5.51771"
           id="path897" />
      </g>
      <text
         id="text903"
         y="123.56065"
         x="271.81528"
         style="font-style:normal;font-weight:normal;font-size:14.11111069px;line-height:1.25;font-family:sans-serif;letter-spacing:0px;word-spacing:0px;fill:#000000;fill-opacity:1;stroke:none;stroke-width:0.26458332"
         xml:space="preserve"><tspan
           style="stroke-width:0.26458332"
           y="123.56065"
           x="271.81528"
           id="tspan901">\vect{a_t}</tspan></text>
      <text
         xml:space="preserve"
         style="font-style:normal;font-weight:normal;font-size:14.11111069px;line-height:1.25;font-family:sans-serif;letter-spacing:0px;word-spacing:0px;fill:#000000;fill-opacity:1;stroke:none;stroke-width:0.26458332"
         x="324.03931"
         y="167.29039"
         id="text907"><tspan
           id="tspan905"
           x="324.03931"
           y="167.29039"
           style="stroke-width:0.26458332">\vect{a_d}</tspan></text>
      <text
         id="text911"
         y="168.5488"
         x="259.86038"
         style="font-style:normal;font-weight:normal;font-size:14.11111069px;line-height:1.25;font-family:sans-serif;letter-spacing:0px;word-spacing:0px;fill:#000000;fill-opacity:1;stroke:none;stroke-width:0.26458332"
         xml:space="preserve"><tspan
           style="stroke-width:0.26458332"
           y="168.5488"
           x="259.86038"
           id="tspan909">\vect{a}</tspan></text>
      <path
         d="m 317.41222,126.84384 a 2.4940576,2.4940576 0 0 1 -0.38457,3.50455 2.4940576,2.4940576 0 0 1 -3.50489,-0.3815 2.4940576,2.4940576 0 0 1 0.37842,-3.50521 2.4940576,2.4940576 0 0 1 3.50555,0.37536"
         id="path913"
         style="opacity:1;fill:#ff0000;fill-opacity:1;fill-rule:nonzero;stroke:#000000;stroke-width:0.71741706;stroke-linecap:round;stroke-linejoin:round;stroke-miterlimit:4;stroke-dasharray:none;stroke-dashoffset:18.89763832;stroke-opacity:1;paint-order:normal" />
      <text
         id="text917"
         y="135.65811"
         x="323.24792"
         style="font-style:normal;font-weight:normal;font-size:14.11111069px;line-height:1.25;font-family:sans-serif;letter-spacing:0px;word-spacing:0px;fill:#000000;fill-opacity:1;stroke:none;stroke-width:0.40778288"
         xml:space="preserve"><tspan
           style="stroke-width:0.40778288"
           y="135.65811"
           x="323.24792"
           id="tspan915">A</tspan></text>
    </g>
  </g>
</svg>
